{
    "home": {
        "title": "Internetske usluge slobodnog softvera",
        "description": "Usluge slobodnog softvera CHATONS kolektiva, za decentraliziranje i otkrivanje weba na ljudskoj razini, ujedinjene i poštuju tvoju privatnost.",
        "more_info": "Više informacija"
    },
    "service": {
        "pad": {
            "description": "„Pad” je uređivač teksta za kolaboracijsko pisanje uživo. Možete istovremeno pisati.",
            "placeholder": "„Pad” ime",
            "title": "Kolaboracijsko pisanje"
        },
        "date": {
            "title": "Pronađi termin",
            "description": "Zakaži termin ili donesi odluke brzo i jednostavno.",
            "placeholder": "Stvori anketu"
        },
        "visio_conf": {
            "title": "Videokonferencija",
            "description": "Videokonferencija za male grupe izravno u tvom pregledniku. Ne moraš se registrirati.",
            "placeholder": "Ime sobe"
        },
        "file_sharing": {
            "title": "Dijeljenje datoteka",
            "description": "Dijeli velike datoteke anonimno bez registriranja.",
            "placeholder": "Prenesi datoteke"
        },
        "url_shortener": {
            "title": "Kraćenje poveznica",
            "description": "Skrati poveznice bez pretplate.",
            "placeholder": "Skrati poveznicu"
        },
        "picture_sharing": {
            "title": "Dijeljenje slika",
            "description": "Dijeli slike u galerijama. Brzo i ne moraš se pretplatiti.",
            "placeholder": "Prenesi slike"
        },
        "postit": {
            "title": "Ploča naljepnica",
            "description": "Prikupi i organiziraj svoje ideje, prikaži mjesta sudjelovanja.",
            "placeholder": "Ime ploče"
        },
        "calc": {
            "title": "Kolaboracijska proračunska tablica",
            "description": "Kolaboracijska proračunska tablica uživo. Možete istovremeno pisati.",
            "placeholder": "Ime proračunske tablice"
        },
        "slides": {
            "title": "Internetska prezentacija",
            "description": "Uredi svoju prezentaciju na internetu",
            "placeholder": "Stvori prezentaciju"
        },
        "bin": {
            "title": "Sigurno dijeljenje teksta",
            "description": "Alat za dijeljenje obostrano šifriranog isječka teksta",
            "placeholder": "Stvori šifriranu poruku"
        },
        "instance": "Instanca",
        "changeInstance": "Promijeni instancu",
        "providedBy": "Omogućuje",
        "optional": "opcionalno",
        "create": "Stvori",
        "other_instances": "Druge instance i dokumentacija"
    },
    "navbar": {
        "language": "Jezik",
        "translate": "Prevodi na Weblateu"
    },
    "footer": {
        "madeBy": "Proizvedeno od kolektivne grupe",
        "illustrationsBy": "Autor ilustracija:",
        "contentsUnderLicence": "Sadržaj lincenziran pod",
        "sourceCode": "Izvorni kod"
    }
}
